[
"root",
"pelvis",
"thigh_R",
"calf_R",
"foot_R",
"toes_R",
"calf_twist_R",
"thigh_twist_R",
"thigh_L",
"calf_L",
"foot_L",
"toes_L",
"calf_twist_L",
"thigh_twist_L",
"spine01",
"spine02",
"spine03",
"clavicle_L",
"upperarm_L",
"lowerarm_L",
"hand_L",
"thumb01_L",
"thumb02_L",
"thumb03_L",
"index00_L",
"index01_L",
"index02_L",
"index03_L",
"middle00_L",
"middle01_L",
"middle02_L",
"middle03_L",
"ring00_L",
"ring01_L",
"ring02_L",
"ring03_L",
"pinky00_L",
"pinky01_L",
"pinky02_L",
"pinky03_L",
"lowerarm_twist_L",
"upperarm_twist_L",
"clavicle_R",
"upperarm_R",
"lowerarm_R",
"hand_R",
"thumb01_R",
"thumb02_R",
"thumb03_R",
"index00_R",
"index01_R",
"index02_R",
"index03_R",
"middle00_R",
"middle01_R",
"middle02_R",
"middle03_R",
"ring00_R",
"ring01_R",
"ring02_R",
"ring03_R",
"pinky00_R",
"pinky01_R",
"pinky02_R",
"pinky03_R",
"lowerarm_twist_R",
"upperarm_twist_R",
"neck",
"head",
"breast_L",
"breast_R"
]