{
    "manual_correction": {
      "0": [17134],
      "1": [16891],
      "3": [17624, 17623],
      "8": [7803, 7807],
      "17": [17114],
      "18": [16354],
      "19": [16351],
      "20": [16355, 16352],
      "21": [16356],
      "22": [1928, 1929],
      "27": [7750],
      "28": [7753],
      "29": [7755, 7762],
      "30": [7796],
      "31": [17197, 17163],
      "32": [16802, 17162],
      "33": [7818],
      "34": [2375],
      "36": [17755],
      "37": [17764],
      "38": [17775],
      "39": [17769],
      "40": [17771, 17776],
      "41": [17015],
      "42": [1835],
      "43": [17750],
      "44": [17739],
      "45": [17730],
      "46": [1816],
      "47": [1820],
      "48": [16491],
      "49": [16522, 16950],
      "50": [16527],
      "51": [7771],
      "52": [2100],
      "53": [2523, 2095],
      "54": [2080],
      "55": [2090, 2109],
      "56": [2117, 2113],
      "57": [7774, 7776],
      "58": [16540, 16544],
      "59": [16517, 16536],
      "60": [16510],
      "61": [16560],
      "62": [7779],
      "63": [2133],
      "64": [2083],
      "65": [2136, 2137],
      "66": [7780],
      "67": [16564, 16563],
      "68": [17151],
      "69": [16467],
      "72": [16740, 16610],
      "76": [17622],
      "78": [16839],
      "77": [16886],
      "82": [16359],
      "83": [17198],
      "84": [1932],
      "85": [2771]
    },
    "lm_indeces": [
      [
        [
          17134,
          17135,
          16981
        ],
        [
          0.40829045011,
          0.228893777085,
          0.362815772805
        ]
      ],
      [
        [
          16891,
          16380,
          17034
        ],
        [
          0.753167282412,
          0.108432183477,
          0.13840053411
        ]
      ],
      [
        [
          16381,
          16892,
          17025
        ],
        [
          0.383125869743,
          0.0485370378476,
          0.56833709241
        ]
      ],
      [
        [
          17620,
          17623,
          17624
        ],
        [
          0.1526883892,
          0.0174708314266,
          0.829840779373
        ]
      ],
      [
        [
          17625,
          17617,
          17618
        ],
        [
          0.46588735656,
          0.306730075116,
          0.227382568324
        ]
      ],
      [
        [
          16929,
          16882,
          17616
        ],
        [
          0.252885489666,
          0.662465340241,
          0.0846491700927
        ]
      ],
      [
        [
          16883,
          17635,
          17630
        ],
        [
          0.0821138150005,
          0.162564690047,
          0.755321494952
        ]
      ],
      [
        [
          16881,
          16880,
          16926
        ],
        [
          0.357348915557,
          0.616934099034,
          0.025716985409
        ]
      ],
      [
        [
          2498,
          7807,
          7803
        ],
        [
          0.00811393532438,
          0.249753869718,
          0.742132194958
        ]
      ],
      [
        [
          2499,
          2453,
          2454
        ],
        [
          0.00968333147979,
          0.604312014574,
          0.386004653946
        ]
      ],
      [
        [
          16217,
          16223,
          2456
        ],
        [
          0.751082485496,
          0.172712535132,
          0.0762049793718
        ]
      ],
      [
        [
          16203,
          2455,
          2502
        ],
        [
          0.0822807662698,
          0.673664567543,
          0.244054666188
        ]
      ],
      [
        [
          16205,
          16204,
          16212
        ],
        [
          0.112021625578,
          0.509475331351,
          0.378503043071
        ]
      ],
      [
        [
          16211,
          16210,
          16207
        ],
        [
          0.782788120284,
          0.0663303102068,
          0.150881569509
        ]
      ],
      [
        [
          2598,
          2465,
          1954
        ],
        [
          0.545679744214,
          0.0593865737876,
          0.394933681999
        ]
      ],
      [
        [
          2607,
          1953,
          2464
        ],
        [
          0.143910628809,
          0.113160794881,
          0.74292857631
        ]
      ],
      [
        [
          2554,
          2708,
          2707
        ],
        [
          0.362169084687,
          0.222373443429,
          0.415457471884
        ]
      ],
      [
        [
          17076,
          17115,
          17068
        ],
        [
          0.390983725736,
          0.281131787157,
          0.327884487107
        ]
      ],
      [
        [
          16354,
          17050,
          17056
        ],
        [
          0.14340757745,
          0.410446612915,
          0.446145809635
        ]
      ],
      [
        [
          16353,
          16351,
          16335
        ],
        [
          0.279497924316,
          0.598149968242,
          0.122352107442
        ]
      ],
      [
        [
          16368,
          16355,
          16352
        ],
        [
          0.0487135349121,
          0.273383076637,
          0.677903388451
        ]
      ],
      [
        [
          16355,
          16363,
          16362
        ],
        [
          0.736420140503,
          0.0341066762462,
          0.229473183251
        ]
      ],
      [
        [
          1935,
          1936,
          1928
        ],
        [
          0.20837684009,
          0.0212086760268,
          0.770414483884
        ]
      ],
      [
        [
          1925,
          1928,
          1941
        ],
        [
          0.643238463753,
          0.296670592573,
          0.0600909436742
        ]
      ],
      [
        [
          1908,
          1924,
          1926
        ],
        [
          0.113186550384,
          0.450031099601,
          0.436782350015
        ]
      ],
      [
        [
          2629,
          2623,
          1927
        ],
        [
          0.447366167223,
          0.371068952262,
          0.181564880516
        ]
      ],
      [
        [
          2641,
          2688,
          2649
        ],
        [
          0.309460677901,
          0.343434177063,
          0.347105145036
        ]
      ],
      [
        [
          7751,
          7752,
          16308
        ],
        [
          0.28425894951,
          0.665938632122,
          0.0498024183682
        ]
      ],
      [
        [
          1878,
          7749,
          7753
        ],
        [
          0.0343456081157,
          0.842773836325,
          0.12288055556
        ]
      ],
      [
        [
          16331,
          7755,
          7762
        ],
        [
          0.0165395096277,
          0.110025953794,
          0.873434536579
        ]
      ],
      [
        [
          2799,
          7764,
          7796
        ],
        [
          0.042259626175,
          0.0632395273557,
          0.894500846469
        ]
      ],
      [
        [
          17161,
          17196,
          16824
        ],
        [
          0.158183546392,
          0.79337481158,
          0.0484416420275
        ]
      ],
      [
        [
          16450
        ],
        [
          1
        ]
      ],
      [
        [
          7768
        ],
        [
          1
        ]
      ],
      [
        [
          2023
        ],
        [
          1
        ]
      ],
      [
        [
          2397,
          2769,
          2734
        ],
        [
          0.0368780254613,
          0.78406142753,
          0.179060547009
        ]
      ],
      [
        [
          17760,
          17755,
          16235
        ],
        [
          0.355910149057,
          0.208361567291,
          0.435728283652
        ]
      ],
      [
        [
          16276,
          16275,
          16321
        ],
        [
          0.0428995718822,
          0.668923168316,
          0.288177259801
        ]
      ],
      [
        [
          16280,
          16279,
          16325
        ],
        [
          0.0883457509436,
          0.55293831335,
          0.358715935706
        ]
      ],
      [
        [
          16284,
          16285,
          16265
        ],
        [
          0.735179668081,
          0.22633867565,
          0.0384816562688
        ]
      ],
      [
        [
          14301
        ],
        [
          1
        ]
      ],
      [
        [
          16243
        ],
        [
          1
        ]
      ],
      [
        [
          1865,
          1858,
          1845
        ],
        [
          0.484173936222,
          0.4125821614,
          0.103243902378
        ]
      ],
      [
        [
          1898,
          1852,
          1853
        ],
        [
          0.343751852104,
          0.536838627542,
          0.119409520354
        ]
      ],
      [
        [
          1894,
          1848,
          1849
        ],
        [
          0.285667977584,
          0.655039924794,
          0.0592920976221
        ]
      ],
      [
        [
          17730,
          1808,
          2376
        ],
        [
          0.616118299121,
          0.0289248765528,
          0.354956824326
        ]
      ],
      [
        [
          1816
        ],
        [
          1
        ]
      ],
      [
        [
          11922
        ],
        [
          1
        ]
      ],
      [
        [
          16745,
          16519,
          16551
        ],
        [
          0.903548105108,
          0.0941716095751,
          0.00228028531659
        ]
      ],
      [
        [
          16522,
          16950,
          16954
        ],
        [
          0.295777445337,
          0.635341890524,
          0.0688806641388
        ]
      ],
      [
        [
          16526,
          16498,
          16938
        ],
        [
          0.87802277389,
          0.0968678054959,
          0.0251094206139
        ]
      ],
      [
        [
          2102,
          7771,
          7770
        ],
        [
          0.0303419335651,
          0.0319820850128,
          0.937675981422
        ]
      ],
      [
        [
          2511,
          2071,
          2099
        ],
        [
          0.0111375779153,
          0.124774145242,
          0.864088276843
        ]
      ],
      [
        [
          2527,
          2523,
          2095
        ],
        [
          0.0270464791491,
          0.667339736572,
          0.305613784279
        ]
      ],
      [
        [
          2317,
          2318,
          2084
        ],
        [
          0.0316675939485,
          0.751899909694,
          0.216432496357
        ]
      ],
      [
        [
          2130,
          2109,
          2113
        ],
        [
          0.114784711905,
          0.765746421489,
          0.119468866606
        ]
      ],
      [
        [
          2111,
          2115,
          2117
        ],
        [
          0.285062107115,
          0.280522484782,
          0.434415408104
        ]
      ],
      [
        [
          7774,
          7776,
          2117
        ],
        [
          0.718530652184,
          0.246056465891,
          0.0354128819252
        ]
      ],
      [
        [
          16544,
          16542,
          16538
        ],
        [
          0.450441290388,
          0.346414393357,
          0.203144316255
        ]
      ],
      [
        [
          16540,
          16536,
          16557
        ],
        [
          0.136636107506,
          0.74045131433,
          0.122912578164
        ]
      ],
      [
        [
          16551,
          16519,
          16516
        ],
        [
          0.106648998748,
          0.30054326184,
          0.592807739412
        ]
      ],
      [
        [
          16564,
          16563,
          16543
        ],
        [
          0.256359799279,
          0.27299301481,
          0.470647185911
        ]
      ],
      [
        [
          7775,
          7780,
          2136
        ],
        [
          0.34564454065,
          0.642155693406,
          0.0121997659443
        ]
      ],
      [
        [
          2116,
          2136,
          2137
        ],
        [
          0.482890410894,
          0.233957437388,
          0.283152151718
        ]
      ],
      [
        [
          2085,
          2088,
          2078
        ],
        [
          0.445495092754,
          0.33968459711,
          0.214820310136
        ]
      ],
      [
        [
          2137,
          2112,
          2116
        ],
        [
          0.022446390364,
          0.241060571255,
          0.736493038381
        ]
      ],
      [
        [
          7775,
          7780,
          2136
        ],
        [
          0.760252377129,
          0.229778864922,
          0.00996875794858
        ]
      ],
      [
        [
          16543,
          16539,
          16564
        ],
        [
          0.761490576989,
          0.195325497434,
          0.0431839255778
        ]
      ],
      [
        [
          16462,
          17160,
          17185
        ],
        [
          0.285135972819,
          0.360402800704,
          0.354461226476
        ]
      ],
      [
        [
          17185,
          16466,
          16467
        ],
        [
          0.210341858516,
          0.360593015435,
          0.42906512605
        ]
      ],
      [
        [
          2758,
          2733,
          2035
        ],
        [
          0.355815627074,
          0.360482389639,
          0.283701983287
        ]
      ],
      [
        [
          2040,
          2039,
          2758
        ],
        [
          0.492832380048,
          0.24582213747,
          0.261345482482
        ]
      ],
      [
        [
          17188,
          17190,
          16610
        ],
        [
          0.669334438154,
          0.0722751254883,
          0.258390436358
        ]
      ],
      [
        [
          16871,
          16877,
          16844
        ],
        [
          0.141001136719,
          0.320930710306,
          0.538068152975
        ]
      ],
      [
        [
          2761
        ],
        [
          1
        ]
      ],
      [
        [
          2417,
          2450,
          2444
        ],
        [
          0.541951639669,
          0.319143436024,
          0.138904924307
        ]
      ],
      [
        [
          17623,
          17620,
          17622
        ],
        [
          0.088605523101,
          0.297704403376,
          0.613690073523
        ]
      ],
      [
        [
          16924,
          16886,
          16931
        ],
        [
          0.355670634563,
          0.0448090678578,
          0.59952029758
        ]
      ],
      [
        [
          16870,
          16839,
          16846
        ],
        [
          0.118319103947,
          0.875668399268,
          0.00601249678588
        ]
      ],
      [
        [
          2419,
          2412,
          2443
        ],
        [
          0.000192269508786,
          0.872937926858,
          0.126869803633
        ]
      ],
      [
        [
          2504,
          2459,
          2497
        ],
        [
          0.59386417352,
          0.0483869372255,
          0.357748889254
        ]
      ],
      [
        [
          16209,
          16207,
          16210
        ],
        [
          0.622329550023,
          0.286390926254,
          0.0912795237229
        ]
      ],
      [
        [
          16937,
          16637,
          16810
        ],
        [
          0.0500289182708,
          0.112662943714,
          0.837308138015
        ]
      ],
      [
        [
          17200,
          17198,
          16809
        ],
        [
          0.170194344513,
          0.566607743586,
          0.263197911902
        ]
      ],
      [
        [
          2383,
          2210,
          2510
        ],
        [
          0.807785902212,
          0.12472052178,
          0.0674935760081
        ]
      ],
      [
        [
          2382,
          2771,
          2773
        ],
        [
          0.262705084169,
          0.57631272991,
          0.16098218592
        ]
      ]
    ]
}