{
    "pose": "point2",
    "clavicle_R": {
        "x": 6.00325563482329e-07,
        "y": -7.81831577256753e-09,
        "z": -0.22572018206119537,
        "order": "XYZ"
    },
    "upperarm_twist_R": {
        "x": 0.0,
        "y": -0.0,
        "z": 0.0,
        "order": "XYZ"
    },
    "lowerarm_twist_R": {
        "x": 0.0,
        "y": -0.0,
        "z": 0.0,
        "order": "XYZ"
    },
    "upperarm_R": {
        "x": 1.4987872838974,
        "y": 9.053412213688716e-06,
        "z": -8.463927088087075e-07,
        "order": "XYZ"
    },
    "lowerarm_R": {
        "x": 0.35510340332984924,
        "y": 1.1408785581588745,
        "z": 0.38733795285224915,
        "order": "XYZ"
    },
    "hand_R": {
        "x": 0.05266142264008522,
        "y": 0.2964516878128052,
        "z": -0.14034368097782135,
        "order": "XYZ"
    },
    "thumb01_R": {
        "x": 0.0,
        "y": 0.0,
        "z": 0.0,
        "order": "XYZ"
    },
    "thumb02_R": {
        "x": 0.11991143226623535,
        "y": -0.2003849744796753,
        "z": 2.2846140836918494e-06,
        "order": "XYZ"
    },
    "thumb03_R": {
        "x": 0.48392897844314575,
        "y": -1.5532134511886397e-07,
        "z": 5.7567497435684345e-08,
        "order": "XYZ"
    },
    "index00_R": {
        "x": -0.002425267593935132,
        "y": -4.6566128730773926e-09,
        "z": 1.4901161193847656e-08,
        "order": "XYZ"
    },
    "index01_R": {
        "x": -5.178148398954363e-07,
        "y": 1.3411057864232134e-07,
        "z": 0.18648003041744232,
        "order": "XYZ"
    },
    "index02_R": {
        "x": -0.013760708272457123,
        "y": -0.0,
        "z": 0.0,
        "order": "XYZ"
    },
    "index03_R": {
        "x": -0.057428307831287384,
        "y": -0.0,
        "z": -7.450581485102248e-09,
        "order": "XYZ"
    },
    "middle00_R": {
        "x": 0.015142176300287247,
        "y": 3.7252898543727042e-09,
        "z": 7.4505797087454084e-09,
        "order": "XYZ"
    },
    "middle01_R": {
        "x": -1.3452796936035156,
        "y": 0.00400289474055171,
        "z": 0.04130157083272934,
        "order": "XYZ"
    },
    "middle02_R": {
        "x": -1.1791521310806274,
        "y": -0.04082305356860161,
        "z": -0.13286446034908295,
        "order": "XYZ"
    },
    "middle03_R": {
        "x": -0.9233970642089844,
        "y": 0.07779276371002197,
        "z": 0.07719796895980835,
        "order": "XYZ"
    },
    "ring00_R": {
        "x": -0.19289813935756683,
        "y": -0.0,
        "z": -5.587934559514451e-09,
        "order": "XYZ"
    },
    "ring01_R": {
        "x": -1.3452632427215576,
        "y": -0.0057209571823477745,
        "z": 0.04479168727993965,
        "order": "XYZ"
    },
    "ring02_R": {
        "x": -1.1880775690078735,
        "y": -0.0014093165518715978,
        "z": -0.050084106624126434,
        "order": "XYZ"
    },
    "ring03_R": {
        "x": -0.9298875331878662,
        "y": 0.07414210587739944,
        "z": -0.006964694242924452,
        "order": "XYZ"
    },
    "pinky00_R": {
        "x": -0.2621733546257019,
        "y": -0.0,
        "z": -9.313225746154785e-09,
        "order": "XYZ"
    },
    "pinky01_R": {
        "x": -1.3459017276763916,
        "y": -0.015901468694210052,
        "z": -0.19864846765995026,
        "order": "XYZ"
    },
    "pinky02_R": {
        "x": -1.2461750507354736,
        "y": 0.05447091907262802,
        "z": 4.407627685054649e-08,
        "order": "XYZ"
    },
    "pinky03_R": {
        "x": -0.932389497756958,
        "y": 7.450581485102248e-09,
        "z": -2.2351745343485163e-08,
        "order": "XYZ"
    }
}