{
    "ring02_R": {
        "x": -1.3764857053756714,
        "y": 0.1009305864572525,
        "z": 0.01982704922556877,
        "order": "XYZ"
    },
    "pinky01_R": {
        "x": -1.2966066598892212,
        "y": -0.202788308262825,
        "z": -0.22027549147605896,
        "order": "XYZ"
    },
    "ring03_R": {
        "x": -1.2454253435134888,
        "y": -1.6005724319256842e-06,
        "z": 1.4350508763527614e-06,
        "order": "XYZ"
    },
    "hand_R": {
        "x": 0.03932538628578186,
        "y": 1.4294865131378174,
        "z": 0.049204111099243164,
        "order": "XYZ"
    },
    "index00_R": {
        "x": -0.20767155289649963,
        "y": -0.11015785485506058,
        "z": 0.02315959893167019,
        "order": "XYZ"
    },
    "ring00_R": {
        "x": -0.2063944786787033,
        "y": 7.406951141319951e-08,
        "z": -4.482049575926794e-07,
        "order": "XYZ"
    },
    "thumb02_R": {
        "x": 0.29023921489715576,
        "y": 0.07469269633293152,
        "z": 0.4004790186882019,
        "order": "XYZ"
    },
    "lowerarm_twist_R": {
        "x": 0.0,
        "y": 0.0,
        "z": 0.0,
        "order": "XYZ"
    },
    "index03_R": {
        "x": -1.2454253435134888,
        "y": 4.713998862371227e-07,
        "z": 4.485887984628789e-06,
        "order": "XYZ"
    },
    "thumb01_R": {
        "x": -0.15310677886009216,
        "y": -0.04271240159869194,
        "z": -0.2699585556983948,
        "order": "XYZ"
    },
    "index02_R": {
        "x": -1.1755249500274658,
        "y": 0.1665121465921402,
        "z": 0.0329044833779335,
        "order": "XYZ"
    },
    "middle00_R": {
        "x": -0.2063944786787033,
        "y": -1.2665985593685036e-07,
        "z": 1.3117545272223197e-08,
        "order": "XYZ"
    },
    "upperarm_twist_R": {
        "x": 0.0,
        "y": 0.0,
        "z": 0.0,
        "order": "XYZ"
    },
    "ring01_R": {
        "x": -1.1231752634048462,
        "y": -0.07863425463438034,
        "z": -1.6021689361878089e-06,
        "order": "XYZ"
    },
    "pinky00_R": {
        "x": -0.20836025476455688,
        "y": 0.13647878170013428,
        "z": -0.02875850722193718,
        "order": "XYZ"
    },
    "pinky03_R": {
        "x": -1.2460031509399414,
        "y": 0.019730351865291595,
        "z": -0.058524757623672485,
        "order": "XYZ"
    },
    "middle01_R": {
        "x": -1.11296808719635,
        "y": 0.01788545399904251,
        "z": -1.56275643803383e-06,
        "order": "XYZ"
    },
    "lowerarm_R": {
        "x": 1.6627023220062256,
        "y": 0.3397555649280548,
        "z": 0.48409101366996765,
        "order": "XYZ"
    },
    "clavicle_R": {
        "x": 0.1379757970571518,
        "y": 0.019729243591427803,
        "z": -0.4699149429798126,
        "order": "XYZ"
    },
    "thumb03_R": {
        "x": 0.28152626752853394,
        "y": 6.578824809366779e-07,
        "z": -0.09899386763572693,
        "order": "XYZ"
    },
    "middle02_R": {
        "x": -1.3774874210357666,
        "y": 1.9296844584459905e-06,
        "z": 2.7426308406575117e-06,
        "order": "XYZ"
    },
    "upperarm_R": {
        "x": 1.3448376655578613,
        "y": 0.3885340094566345,
        "z": 0.2705901861190796,
        "order": "XYZ"
    },
    "middle03_R": {
        "x": -1.240976333618164,
        "y": 0.1614563763141632,
        "z": 0.05497488006949425,
        "order": "XYZ"
    },
    "index01_R": {
        "x": -1.1384155750274658,
        "y": 0.18565578758716583,
        "z": -2.1415914943645475e-06,
        "order": "XYZ"
    },
    "pinky02_R": {
        "x": -1.3774874210357666,
        "y": -1.5820228327356745e-07,
        "z": 5.8362125798794295e-08,
        "order": "XYZ"
    }
}