{
    "middle03_R": {
        "x": -0.7670145630836487,
        "y": 0.0650993064045906,
        "z": 0.11556721478700638,
        "order": "XYZ"
    },
    "upperarm_twist_R": {
        "x": 0.0,
        "y": 0.0,
        "z": 0.0,
        "order": "XYZ"
    },
    "index03_R": {
        "x": -0.5336170196533203,
        "y": 0.1110001727938652,
        "z": -0.060687631368637085,
        "order": "XYZ"
    },
    "index00_R": {
        "x": -2.831220058396866e-07,
        "y": 1.1920930376163597e-07,
        "z": 0.03110906481742859,
        "order": "XYZ"
    },
    "middle00_R": {
        "x": 0.0,
        "y": 0.0,
        "z": 0.0,
        "order": "XYZ"
    },
    "lowerarm_twist_R": {
        "x": 0.0,
        "y": -0.8831366300582886,
        "z": 0.0,
        "order": "XYZ"
    },
    "index01_R": {
        "x": -1.1770738363265991,
        "y": -0.19088111817836761,
        "z": 0.06143929064273834,
        "order": "XYZ"
    },
    "middle02_R": {
        "x": -1.6107769012451172,
        "y": -0.030612284317612648,
        "z": -0.09181290864944458,
        "order": "XYZ"
    },
    "thumb02_R": {
        "x": -0.7625820636749268,
        "y": -0.2464045286178589,
        "z": 0.005839935503900051,
        "order": "XYZ"
    },
    "ring03_R": {
        "x": -0.7788770794868469,
        "y": 0.039303235709667206,
        "z": 0.03946663811802864,
        "order": "XYZ"
    },
    "clavicle_R": {
        "x": 0.12581145763397217,
        "y": 0.05605592951178551,
        "z": -0.09369398653507233,
        "order": "XYZ"
    },
    "pinky02_R": {
        "x": -1.6274338960647583,
        "y": 0.08594902604818344,
        "z": 0.0374748632311821,
        "order": "XYZ"
    },
    "ring02_R": {
        "x": -1.6144009828567505,
        "y": -0.013668580912053585,
        "z": 0.02578703500330448,
        "order": "XYZ"
    },
    "middle01_R": {
        "x": -1.1781402826309204,
        "y": -0.118018239736557,
        "z": 0.049424778670072556,
        "order": "XYZ"
    },
    "hand_R": {
        "x": -1.7113617658615112,
        "y": -1.1532135009765625,
        "z": 1.3548216819763184,
        "order": "XYZ"
    },
    "ring01_R": {
        "x": -1.1880155801773071,
        "y": -0.09641124308109283,
        "z": 0.09436618536710739,
        "order": "XYZ"
    },
    "thumb03_R": {
        "x": -1.1288150548934937,
        "y": 0.1259460300207138,
        "z": 0.48230087757110596,
        "order": "XYZ"
    },
    "ring00_R": {
        "x": 4.470348358154297e-07,
        "y": -5.960463766996327e-08,
        "z": -0.04828181117773056,
        "order": "XYZ"
    },
    "index02_R": {
        "x": -1.5931251049041748,
        "y": 0.24720768630504608,
        "z": 0.04812464118003845,
        "order": "XYZ"
    },
    "pinky03_R": {
        "x": -0.7815381288528442,
        "y": 1.9162529341087975e-08,
        "z": 7.058390849579155e-08,
        "order": "XYZ"
    },
    "pinky01_R": {
        "x": -1.1931332349777222,
        "y": -0.09047400951385498,
        "z": 0.09285888075828552,
        "order": "XYZ"
    },
    "upperarm_R": {
        "x": 0.8409510850906372,
        "y": -0.1709059774875641,
        "z": -0.10061892867088318,
        "order": "XYZ"
    },
    "pinky00_R": {
        "x": 1.139938717642508e-06,
        "y": 5.960464477539063e-08,
        "z": -0.11194854229688644,
        "order": "XYZ"
    },
    "lowerarm_R": {
        "x": 1.5341770648956299,
        "y": 0.10716599225997925,
        "z": 0.28263071179389954,
        "order": "XYZ"
    },
    "thumb01_R": {
        "x": 0.0,
        "y": 0.0,
        "z": 0.0,
        "order": "XYZ"
    }
}