{
    "pose": "kasuha",
    "index02_R": {
        "x": 0.0,
        "y": 0.0,
        "z": 0.0,
        "order": "XYZ"
    },
    "ring01_R": {
        "x": -0.715584933757782,
        "y": 0.0,
        "z": 0.0,
        "order": "XYZ"
    },
    "middle01_R": {
        "x": -0.8150687217712402,
        "y": 0.0,
        "z": 0.0,
        "order": "XYZ"
    },
    "hand_R": {
        "x": 0.0,
        "y": 0.0,
        "z": 0.0,
        "order": "XYZ"
    },
    "index01_R": {
        "x": -0.021259989589452744,
        "y": -0.023812564089894295,
        "z": 0.2515549659729004,
        "order": "XYZ"
    },
    "ring02_R": {
        "x": -2.33001446723938,
        "y": 0.0,
        "z": 0.0,
        "order": "XYZ"
    },
    "lowerarm_twist_R": {
        "x": 0.0,
        "y": 0.0,
        "z": 0.0,
        "order": "XYZ"
    },
    "ring00_R": {
        "x": 0.0,
        "y": 0.0,
        "z": 0.0,
        "order": "XYZ"
    },
    "lowerarm_R": {
        "x": 0.0,
        "y": 0.0,
        "z": 0.0,
        "order": "XYZ"
    },
    "index03_R": {
        "x": 0.0,
        "y": 0.0,
        "z": 0.0,
        "order": "XYZ"
    },
    "middle00_R": {
        "x": 0.0044141956605017185,
        "y": 0.015304384753108025,
        "z": 0.029490292072296143,
        "order": "XYZ"
    },
    "thumb01_R": {
        "x": -0.08779794722795486,
        "y": -0.01526764314621687,
        "z": -0.21698260307312012,
        "order": "XYZ"
    },
    "middle02_R": {
        "x": -1.9216071367263794,
        "y": 0.0,
        "z": 0.0,
        "order": "XYZ"
    },
    "thumb03_R": {
        "x": -1.1042702198028564,
        "y": 0.14802129566669464,
        "z": 0.3442722260951996,
        "order": "XYZ"
    },
    "upperarm_R": {
        "x": 0.0,
        "y": 0.0,
        "z": 0.0,
        "order": "XYZ"
    },
    "thumb02_R": {
        "x": -1.2042479515075684,
        "y": 0.18066713213920593,
        "z": 0.3086095154285431,
        "order": "XYZ"
    },
    "pinky00_R": {
        "x": 0.0,
        "y": 0.0,
        "z": 0.0,
        "order": "XYZ"
    },
    "pinky02_R": {
        "x": 0.0,
        "y": 0.0,
        "z": 0.0,
        "order": "XYZ"
    },
    "clavicle_R": {
        "x": 0.0,
        "y": 0.0,
        "z": 0.0,
        "order": "XYZ"
    },
    "ring03_R": {
        "x": -0.21642088890075684,
        "y": 0.0,
        "z": 0.0,
        "order": "XYZ"
    },
    "index00_R": {
        "x": 0.007256378419697285,
        "y": 0.007306225132197142,
        "z": 0.03176825866103172,
        "order": "XYZ"
    },
    "middle03_R": {
        "x": -0.513126790523529,
        "y": 0.0,
        "z": 0.0,
        "order": "XYZ"
    },
    "pinky01_R": {
        "x": 0.0008587053744122386,
        "y": 0.010504241101443768,
        "z": -0.1454627960920334,
        "order": "XYZ"
    },
    "upperarm_twist_R": {
        "x": 0.0,
        "y": 0.0,
        "z": 0.0,
        "order": "XYZ"
    },
    "pinky03_R": {
        "x": 0.0,
        "y": 0.0,
        "z": 0.0,
        "order": "XYZ"
    }
}