{
    "ring02_R": {
        "x": -1.6144009828567505,
        "y": -0.013668580912053585,
        "z": 0.02578703500330448,
        "order": "XYZ"
    },
    "pinky01_R": {
        "x": -1.123029112815857,
        "y": -0.30580687522888184,
        "z": -0.21038340032100677,
        "order": "XYZ"
    },
    "ring03_R": {
        "x": -0.7788770794868469,
        "y": 0.039303235709667206,
        "z": 0.03946663811802864,
        "order": "XYZ"
    },
    "hand_R": {
        "x": -1.517048716545105,
        "y": 0.9035224318504333,
        "z": -1.8496389389038086,
        "order": "XYZ"
    },
    "index00_R": {
        "x": -2.831220058396866e-07,
        "y": 1.1920930376163597e-07,
        "z": 0.03110906481742859,
        "order": "XYZ"
    },
    "ring00_R": {
        "x": -0.00602575670927763,
        "y": -0.006630471907556057,
        "z": -0.09809082001447678,
        "order": "XYZ"
    },
    "thumb02_R": {
        "x": -0.8776021599769592,
        "y": -0.24875356256961823,
        "z": -0.0363679863512516,
        "order": "XYZ"
    },
    "lowerarm_twist_R": {
        "x": 0.0,
        "y": 0.0,
        "z": 0.0,
        "order": "XYZ"
    },
    "index03_R": {
        "x": 0.0,
        "y": 0.0,
        "z": 0.0,
        "order": "XYZ"
    },
    "thumb01_R": {
        "x": -0.031554464250802994,
        "y": 0.037692245095968246,
        "z": -0.16231383383274078,
        "order": "XYZ"
    },
    "index02_R": {
        "x": 0.0,
        "y": 0.0,
        "z": 0.04812464118003845,
        "order": "XYZ"
    },
    "middle00_R": {
        "x": 0.0,
        "y": 0.0,
        "z": 0.0,
        "order": "XYZ"
    },
    "upperarm_twist_R": {
        "x": 0.0,
        "y": 0.0,
        "z": 0.0,
        "order": "XYZ"
    },
    "ring01_R": {
        "x": -1.1739944219589233,
        "y": -0.17355233430862427,
        "z": 0.06225457414984703,
        "order": "XYZ"
    },
    "pinky00_R": {
        "x": -0.0029094545170664787,
        "y": -0.0032491241581737995,
        "z": -0.13928601145744324,
        "order": "XYZ"
    },
    "pinky03_R": {
        "x": -0.7815381288528442,
        "y": 1.9162529341087975e-08,
        "z": 7.058390849579155e-08,
        "order": "XYZ"
    },
    "middle01_R": {
        "x": 0.008776603266596794,
        "y": -0.010348103009164333,
        "z": -0.0240646880120039,
        "order": "XYZ"
    },
    "lowerarm_R": {
        "x": 2.173062562942505,
        "y": 0.27632400393486023,
        "z": -0.11958503723144531,
        "order": "XYZ"
    },
    "clavicle_R": {
        "x": 0.21062996983528137,
        "y": 0.05447564646601677,
        "z": 0.022340893745422363,
        "order": "XYZ"
    },
    "thumb03_R": {
        "x": -1.0285273790359497,
        "y": 0.005791640840470791,
        "z": -0.11042781174182892,
        "order": "XYZ"
    },
    "middle02_R": {
        "x": 0.0,
        "y": 0.0,
        "z": -0.09181290864944458,
        "order": "XYZ"
    },
    "upperarm_R": {
        "x": 0.6256267428398132,
        "y": -0.3321834206581116,
        "z": -0.18258365988731384,
        "order": "XYZ"
    },
    "middle03_R": {
        "x": 0.0,
        "y": 0.0,
        "z": 0.11556721478700638,
        "order": "XYZ"
    },
    "index01_R": {
        "x": -0.052077773958444595,
        "y": 0.0555805005133152,
        "z": 0.21345368027687073,
        "order": "XYZ"
    },
    "pinky02_R": {
        "x": -1.6144286394119263,
        "y": 1.364984996143903e-07,
        "z": -8.771952053621135e-08,
        "order": "XYZ"
    }
}