{
    "root": {
        "xh": 1.0058283983482852e-08,
        "yh": 0.0006665000692009926,
        "zh": 0.04686000570654869,
        "xt": -3.039836826701503e-08,
        "yt": -0.21307945251464844,
        "zt": 0.013368804007768631
    },
    "pelvis": {
        "xh": 3.494733391562477e-10,
        "yh": -0.018737487494945526,
        "zh": 0.8105424642562866,
        "xt": -8.280927055182019e-10,
        "yt": 0.000534452497959137,
        "zt": 0.9600111246109009
    },
    "thigh_R": {
        "xh": -0.11696770042181015,
        "yh": 0.0005423147231340408,
        "zh": 0.886614203453064,
        "xt": -0.15009167790412903,
        "yt": -0.02365276962518692,
        "zt": 0.4772183895111084
    },
    "calf_R": {
        "xh": -0.15009167790412903,
        "yh": -0.02365276962518692,
        "zh": 0.4772183895111084,
        "xt": -0.20466375350952148,
        "yt": -0.022714989259839058,
        "zt": 0.09254765510559082
    },
    "foot_R": {
        "xh": -0.20466375350952148,
        "yh": -0.022714989259839058,
        "zh": 0.09254765510559082,
        "xt": -0.21434372663497925,
        "yt": -0.15369246900081635,
        "zt": 0.01995515078306198
    },
    "toes_R": {
        "xh": -0.21434372663497925,
        "yh": -0.15369246900081635,
        "zh": 0.01995515078306198,
        "xt": -0.21899165213108063,
        "yt": -0.20225831866264343,
        "zt": 0.016786813735961914
    },
    "calf_twist_R": {
        "xh": -0.15009166300296783,
        "yh": -0.02365276776254177,
        "zh": 0.4772184491157532,
        "xt": -0.19043909013271332,
        "yt": -0.018183626234531403,
        "zt": 0.21262291073799133
    },
    "thigh_twist_R": {
        "xh": -0.11696770042181015,
        "yh": 0.0005423165857791901,
        "zh": 0.886614203453064,
        "xt": -0.1308332085609436,
        "yt": -0.027234280481934547,
        "zt": 0.7059829831123352
    },
    "thigh_L": {
        "xh": 0.11696770042181015,
        "yh": 0.0005423147231340408,
        "zh": 0.886614203453064,
        "xt": 0.15009169280529022,
        "yt": -0.023652764037251472,
        "zt": 0.4772183895111084
    },
    "calf_L": {
        "xh": 0.15009169280529022,
        "yh": -0.023652764037251472,
        "zh": 0.4772183895111084,
        "xt": 0.20466379821300507,
        "yt": -0.02271498553454876,
        "zt": 0.09254756569862366
    },
    "foot_L": {
        "xh": 0.20466379821300507,
        "yh": -0.02271498553454876,
        "zh": 0.09254756569862366,
        "xt": 0.21434377133846283,
        "yt": -0.15369249880313873,
        "zt": 0.019955068826675415
    },
    "toes_L": {
        "xh": 0.21434377133846283,
        "yh": -0.15369249880313873,
        "zh": 0.019955068826675415,
        "xt": 0.2189916968345642,
        "yt": -0.20225833356380463,
        "zt": 0.016786733642220497
    },
    "calf_twist_L": {
        "xh": 0.15009170770645142,
        "yh": -0.023652764037251472,
        "zh": 0.4772183895111084,
        "xt": 0.1904391348361969,
        "yt": -0.018183622509241104,
        "zt": 0.21262285113334656
    },
    "thigh_twist_L": {
        "xh": 0.11696770042181015,
        "yh": 0.0005423256079666317,
        "zh": 0.8866143226623535,
        "xt": 0.1308332234621048,
        "yt": -0.0272342748939991,
        "zt": 0.70598304271698
    },
    "spine01": {
        "xh": -8.280927055182019e-10,
        "yh": 0.000534452497959137,
        "zh": 0.9600111246109009,
        "xt": -1.0637959402259867e-09,
        "yt": -0.00933998916298151,
        "zt": 1.081393837928772
    },
    "spine02": {
        "xh": -1.0637959402259867e-09,
        "yh": -0.00933998916298151,
        "zh": 1.081393837928772,
        "xt": 2.3895272427409964e-09,
        "yt": -0.0004065549001097679,
        "zt": 1.2037078142166138
    },
    "spine03": {
        "xh": 2.3895272427409964e-09,
        "yh": -0.0004065549001097679,
        "zh": 1.2037078142166138,
        "xt": -1.795992243813771e-10,
        "yt": 0.01798843964934349,
        "zt": 1.324601173400879
    },
    "clavicle_L": {
        "xh": 0.033193059265613556,
        "yh": -0.0029377713799476624,
        "zh": 1.369497537612915,
        "xt": 0.14480936527252197,
        "yt": -0.017016582190990448,
        "zt": 1.3458131551742554
    },
    "upperarm_L": {
        "xh": 0.14480936527252197,
        "yh": -0.017016582190990448,
        "zh": 1.3458131551742554,
        "xt": 0.38697952032089233,
        "yt": 0.006023341789841652,
        "zt": 1.2058357000350952
    },
    "lowerarm_L": {
        "xh": 0.38697952032089233,
        "yh": 0.006023341789841652,
        "zh": 1.2058357000350952,
        "xt": 0.5977344512939453,
        "yt": -0.033692218363285065,
        "zt": 1.098131775856018
    },
    "hand_L": {
        "xh": 0.5977344512939453,
        "yh": -0.033692218363285065,
        "zh": 1.098131775856018,
        "xt": 0.6251634955406189,
        "yt": -0.036298561841249466,
        "zt": 1.0804249048233032
    },
    "thumb01_L": {
        "xh": 0.6063200235366821,
        "yh": -0.05174104869365692,
        "zh": 1.088643193244934,
        "xt": 0.6137304902076721,
        "yt": -0.07830874621868134,
        "zt": 1.0600148439407349
    },
    "thumb02_L": {
        "xh": 0.6137304902076721,
        "yh": -0.07830874621868134,
        "zh": 1.0600148439407349,
        "xt": 0.6252367496490479,
        "yt": -0.10571333765983582,
        "zt": 1.0451267957687378
    },
    "thumb03_L": {
        "xh": 0.6252367496490479,
        "yh": -0.10571333765983582,
        "zh": 1.0451267957687378,
        "xt": 0.6345767378807068,
        "yt": -0.12053000181913376,
        "zt": 1.026593565940857
    },
    "index00_L": {
        "xh": 0.6141284108161926,
        "yh": -0.053827494382858276,
        "zh": 1.086837649345398,
        "xt": 0.6639180779457092,
        "yt": -0.06160999462008476,
        "zt": 1.0626381635665894
    },
    "index01_L": {
        "xh": 0.6639180779457092,
        "yh": -0.06160999462008476,
        "zh": 1.0626381635665894,
        "xt": 0.6911167502403259,
        "yt": -0.06214665621519089,
        "zt": 1.0411667823791504
    },
    "index02_L": {
        "xh": 0.6911167502403259,
        "yh": -0.06214665621519089,
        "zh": 1.0411667823791504,
        "xt": 0.70958012342453,
        "yt": -0.06104665994644165,
        "zt": 1.0270434617996216
    },
    "index03_L": {
        "xh": 0.70958012342453,
        "yh": -0.06104665994644165,
        "zh": 1.0270434617996216,
        "xt": 0.7235300540924072,
        "yt": -0.05967666581273079,
        "zt": 1.0101901292800903
    },
    "middle00_L": {
        "xh": 0.6146539449691772,
        "yh": -0.04009999334812164,
        "zh": 1.084769606590271,
        "xt": 0.6656380295753479,
        "yt": -0.04443599283695221,
        "zt": 1.06668221950531
    },
    "middle01_L": {
        "xh": 0.6656380295753479,
        "yh": -0.04443599283695221,
        "zh": 1.06668221950531,
        "xt": 0.6959100365638733,
        "yt": -0.04420999065041542,
        "zt": 1.0386735200881958
    },
    "middle02_L": {
        "xh": 0.6959100365638733,
        "yh": -0.04420999065041542,
        "zh": 1.0386735200881958,
        "xt": 0.7158267498016357,
        "yt": -0.04402332752943039,
        "zt": 1.022506833076477
    },
    "middle03_L": {
        "xh": 0.7158267498016357,
        "yh": -0.04402332752943039,
        "zh": 1.022506833076477,
        "xt": 0.7310900688171387,
        "yt": -0.04404999315738678,
        "zt": 1.0043268203735352
    },
    "ring00_L": {
        "xh": 0.6155315041542053,
        "yh": -0.03009171597659588,
        "zh": 1.085663914680481,
        "xt": 0.6622521281242371,
        "yt": -0.027959996834397316,
        "zt": 1.0682841539382935
    },
    "ring01_L": {
        "xh": 0.6622521281242371,
        "yh": -0.027959996834397316,
        "zh": 1.0682841539382935,
        "xt": 0.692270040512085,
        "yt": -0.02758999541401863,
        "zt": 1.0401934385299683
    },
    "ring02_L": {
        "xh": 0.692270040512085,
        "yh": -0.02758999541401863,
        "zh": 1.0401934385299683,
        "xt": 0.7105433940887451,
        "yt": -0.027283329516649246,
        "zt": 1.0258702039718628
    },
    "ring03_L": {
        "xh": 0.7105433940887451,
        "yh": -0.027283329516649246,
        "zh": 1.0258702039718628,
        "xt": 0.7265967726707458,
        "yt": -0.02816666290163994,
        "zt": 1.009723424911499
    },
    "pinky00_L": {
        "xh": 0.6127334833145142,
        "yh": -0.012907050549983978,
        "zh": 1.082500696182251,
        "xt": 0.6555560231208801,
        "yt": -0.011339991353452206,
        "zt": 1.0656800270080566
    },
    "pinky01_L": {
        "xh": 0.6555560231208801,
        "yh": -0.011339991353452206,
        "zh": 1.0656800270080566,
        "xt": 0.6814967393875122,
        "yt": -0.011599992401897907,
        "zt": 1.0443668365478516
    },
    "pinky02_L": {
        "xh": 0.6814967393875122,
        "yh": -0.011599992401897907,
        "zh": 1.0443668365478516,
        "xt": 0.695056676864624,
        "yt": -0.012763326056301594,
        "zt": 1.0337334871292114
    },
    "pinky03_L": {
        "xh": 0.695056676864624,
        "yh": -0.012763326056301594,
        "zh": 1.0337334871292114,
        "xt": 0.7054100036621094,
        "yt": -0.013939990662038326,
        "zt": 1.0218734741210938
    },
    "lowerarm_twist_L": {
        "xh": 0.38697952032089233,
        "yh": 0.006023347843438387,
        "zh": 1.2058357000350952,
        "xt": 0.5045165419578552,
        "yt": -0.017990577965974808,
        "zt": 1.1450135707855225
    },
    "upperarm_twist_L": {
        "xh": 0.14480939507484436,
        "yh": -0.017016582190990448,
        "zh": 1.3458131551742554,
        "xt": 0.28042393922805786,
        "yt": -0.013670546002686024,
        "zt": 1.2604434490203857
    },
    "clavicle_R": {
        "xh": -0.033193059265613556,
        "yh": -0.0029377713799476624,
        "zh": 1.369497537612915,
        "xt": -0.14480936527252197,
        "yt": -0.017016591504216194,
        "zt": 1.3458131551742554
    },
    "upperarm_R": {
        "xh": -0.14480936527252197,
        "yh": -0.017016591504216194,
        "zh": 1.3458131551742554,
        "xt": -0.38697946071624756,
        "yt": 0.006023334339261055,
        "zt": 1.2058357000350952
    },
    "lowerarm_R": {
        "xh": -0.38697946071624756,
        "yh": 0.006023334339261055,
        "zh": 1.2058357000350952,
        "xt": -0.5977343916893005,
        "yt": -0.03369222581386566,
        "zt": 1.098131775856018
    },
    "hand_R": {
        "xh": -0.5977343916893005,
        "yh": -0.03369222581386566,
        "zh": 1.098131775856018,
        "xt": -0.6251634359359741,
        "yt": -0.03629856929183006,
        "zt": 1.0804249048233032
    },
    "thumb01_R": {
        "xh": -0.6063199639320374,
        "yh": -0.05174105614423752,
        "zh": 1.088643193244934,
        "xt": -0.6137304306030273,
        "yt": -0.07830875366926193,
        "zt": 1.0600148439407349
    },
    "thumb02_R": {
        "xh": -0.6137304306030273,
        "yh": -0.07830875366926193,
        "zh": 1.0600148439407349,
        "xt": -0.6252366900444031,
        "yt": -0.10571333765983582,
        "zt": 1.0451267957687378
    },
    "thumb03_R": {
        "xh": -0.6252366900444031,
        "yh": -0.10571333765983582,
        "zh": 1.0451267957687378,
        "xt": -0.634576678276062,
        "yt": -0.12053000181913376,
        "zt": 1.026593565940857
    },
    "index00_R": {
        "xh": -0.6141283512115479,
        "yh": -0.05382750183343887,
        "zh": 1.086837649345398,
        "xt": -0.6639180183410645,
        "yt": -0.06161000579595566,
        "zt": 1.0626381635665894
    },
    "index01_R": {
        "xh": -0.6639180183410645,
        "yh": -0.06161000579595566,
        "zh": 1.0626381635665894,
        "xt": -0.6911166906356812,
        "yt": -0.06214666739106178,
        "zt": 1.0411667823791504
    },
    "index02_R": {
        "xh": -0.6911166906356812,
        "yh": -0.06214666739106178,
        "zh": 1.0411667823791504,
        "xt": -0.7095800638198853,
        "yt": -0.061046671122312546,
        "zt": 1.0270434617996216
    },
    "index03_R": {
        "xh": -0.7095800638198853,
        "yh": -0.061046671122312546,
        "zh": 1.0270434617996216,
        "xt": -0.7235299944877625,
        "yt": -0.059676676988601685,
        "zt": 1.0101901292800903
    },
    "middle00_R": {
        "xh": -0.6146538853645325,
        "yh": -0.04010000079870224,
        "zh": 1.084769606590271,
        "xt": -0.6656379699707031,
        "yt": -0.044436000287532806,
        "zt": 1.06668221950531
    },
    "middle01_R": {
        "xh": -0.6656379699707031,
        "yh": -0.044436000287532806,
        "zh": 1.06668221950531,
        "xt": -0.6959099769592285,
        "yt": -0.04420999810099602,
        "zt": 1.0386735200881958
    },
    "middle02_R": {
        "xh": -0.6959099769592285,
        "yh": -0.04420999810099602,
        "zh": 1.0386735200881958,
        "xt": -0.715826690196991,
        "yt": -0.044023334980010986,
        "zt": 1.022506833076477
    },
    "middle03_R": {
        "xh": -0.715826690196991,
        "yh": -0.044023334980010986,
        "zh": 1.022506833076477,
        "xt": -0.7310900092124939,
        "yt": -0.04405000060796738,
        "zt": 1.0043268203735352
    },
    "ring00_R": {
        "xh": -0.6155314445495605,
        "yh": -0.030091723427176476,
        "zh": 1.085663914680481,
        "xt": -0.6622520685195923,
        "yt": -0.027960002422332764,
        "zt": 1.0682841539382935
    },
    "ring01_R": {
        "xh": -0.6622520685195923,
        "yh": -0.027960002422332764,
        "zh": 1.0682841539382935,
        "xt": -0.6922699809074402,
        "yt": -0.02759000100195408,
        "zt": 1.0401934385299683
    },
    "ring02_R": {
        "xh": -0.6922699809074402,
        "yh": -0.02759000100195408,
        "zh": 1.0401934385299683,
        "xt": -0.7105433344841003,
        "yt": -0.027283335104584694,
        "zt": 1.0258702039718628
    },
    "ring03_R": {
        "xh": -0.7105433344841003,
        "yh": -0.027283335104584694,
        "zh": 1.0258702039718628,
        "xt": -0.7265967130661011,
        "yt": -0.028166668489575386,
        "zt": 1.009723424911499
    },
    "pinky00_R": {
        "xh": -0.6127334833145142,
        "yh": -0.012907059863209724,
        "zh": 1.082500696182251,
        "xt": -0.6555560231208801,
        "yt": -0.011339997872710228,
        "zt": 1.0656800270080566
    },
    "pinky01_R": {
        "xh": -0.6555560231208801,
        "yh": -0.011339997872710228,
        "zh": 1.0656800270080566,
        "xt": -0.6814967393875122,
        "yt": -0.01159999892115593,
        "zt": 1.0443668365478516
    },
    "pinky02_R": {
        "xh": -0.6814967393875122,
        "yh": -0.01159999892115593,
        "zh": 1.0443668365478516,
        "xt": -0.695056676864624,
        "yt": -0.012763332575559616,
        "zt": 1.0337334871292114
    },
    "pinky03_R": {
        "xh": -0.695056676864624,
        "yh": -0.012763332575559616,
        "zh": 1.0337334871292114,
        "xt": -0.7054100036621094,
        "yt": -0.013939997181296349,
        "zt": 1.0218734741210938
    },
    "lowerarm_twist_R": {
        "xh": -0.38697943091392517,
        "yh": 0.006023336201906204,
        "zh": 1.2058357000350952,
        "xt": -0.5045164823532104,
        "yt": -0.017990591004490852,
        "zt": 1.1450135707855225
    },
    "upperarm_twist_R": {
        "xh": -0.14480933547019958,
        "yh": -0.017016593366861343,
        "zh": 1.3458131551742554,
        "xt": -0.2804238796234131,
        "yt": -0.013670552521944046,
        "zt": 1.2604434490203857
    },
    "neck": {
        "xh": 2.691051825820523e-10,
        "yh": -0.0032221395522356033,
        "zh": 1.4059953689575195,
        "xt": -2.706290080922713e-09,
        "yt": -0.05225636065006256,
        "zt": 1.516768217086792
    },
    "head": {
        "xh": -2.706290080922713e-09,
        "yh": -0.05225636065006256,
        "zh": 1.516768217086792,
        "xt": -2.0394974598048066e-10,
        "yt": -0.054016657173633575,
        "zt": 1.6756513118743896
    },
    "breast_L": {
        "xh": 0.07838334888219833,
        "yh": -0.03476082906126976,
        "zh": 1.2511110305786133,
        "xt": 0.10651500523090363,
        "yt": -0.17167001962661743,
        "zt": 1.2188650369644165
    },
    "breast_R": {
        "xh": -0.07838333398103714,
        "yh": -0.03476082533597946,
        "zh": 1.2511110305786133,
        "xt": -0.10651501268148422,
        "yt": -0.17167001962661743,
        "zt": 1.2188650369644165
    }
}